x,y map size
90 40
102	102	102	102	102	102	102	102	102	102	102	102	102	102	102	102	102	102	102	102	102	102	102	102	102	102	102	102	102	102	102	102	102	102	102	102	102	102	102	102	102	102	102	102	102	102	102	102	102	102	102	102	102	102	102	102	102	102	102	102	102	102	102	102	102	102	102	102	102	102	102	102	102	102	102	102	102	102	102	102	102	102	102	102	102	102	102	102	102	102	
102	102	102	102	102	102	102	102	102	102	102	102	102	102	102	102	102	102	102	102	102	102	102	102	102	102	102	102	102	102	102	102	102	102	102	102	102	102	102	102	102	102	102	102	102	102	102	102	102	102	102	102	102	102	102	102	102	102	102	102	102	102	102	102	102	102	102	102	102	102	102	102	102	102	102	102	102	102	102	102	102	102	102	102	102	102	102	102	102	102	
102	102	102	102	102	102	102	102	102	102	102	102	102	102	102	102	102	102	102	102	102	102	102	102	102	102	102	102	102	102	102	102	102	102	102	102	102	102	102	102	102	102	102	102	102	102	102	102	102	102	102	102	102	102	102	102	102	102	102	102	102	102	102	102	102	102	102	102	102	102	102	102	102	102	102	102	102	102	102	102	102	102	102	102	102	102	102	102	102	102	
102	102	102	102	102	102	102	102	102	102	102	102	102	102	102	102	102	102	102	102	102	102	102	102	102	102	102	102	102	102	102	102	102	102	102	102	102	102	102	102	102	102	102	102	102	102	102	102	102	102	102	102	102	102	102	102	102	102	102	102	102	102	102	102	102	102	102	102	102	102	102	102	102	102	102	102	102	102	102	102	102	102	102	102	102	102	102	102	102	102	
102	102	102	102	102	102	102	102	102	102	102	102	102	102	102	102	102	102	102	102	102	102	102	102	102	102	102	102	102	102	102	102	102	102	102	102	102	102	102	102	102	102	102	102	102	102	102	102	102	102	102	102	102	102	102	102	102	102	102	102	102	102	102	102	102	102	102	102	102	102	102	102	102	102	102	102	102	102	102	102	102	102	102	102	102	102	102	102	102	102	
102	102	102	102	102	102	102	102	102	102	102	102	102	102	102	102	102	102	102	102	102	102	102	102	102	102	102	102	102	102	102	102	666	102	102	102	102	102	102	102	102	102	102	102	102	102	102	102	102	102	102	102	102	102	102	102	102	102	102	102	102	102	102	102	102	102	102	102	102	102	102	102	102	102	102	102	102	102	102	102	102	102	102	102	102	102	102	102	102	102	
102	102	102	102	102	102	102	102	102	102	102	102	102	102	102	102	102	102	102	666	102	102	102	102	102	102	102	102	102	102	102	102	1	1	1	1	1	1	1	1	1	1	1	1	102	102	102	102	102	102	102	102	102	102	102	102	102	102	102	102	102	102	102	102	102	102	102	102	102	102	102	102	102	102	102	102	102	102	102	102	102	102	102	102	102	102	102	102	102	102	
102	102	102	102	102	102	102	102	102	102	102	102	102	102	102	102	102	102	1	1	411	1	1	1	1	1	1	1	1	1	1	1	1	102	102	102	102	102	102	102	1	1	1	1	1	1	102	102	102	102	102	102	102	102	102	102	102	102	102	102	102	102	102	102	102	102	102	102	102	102	102	102	102	102	102	102	102	102	102	102	102	102	102	102	102	102	102	102	102	102	
102	102	102	102	102	102	102	102	102	102	102	102	102	102	102	102	1	1	1	1	1	1	1	1	1	102	102	102	102	1	1	1	1	1	102	102	102	102	102	102	102	102	102	102	102	1	1	1	1	1	1	1	1	1	102	102	1	102	102	102	102	102	102	102	102	102	102	102	102	102	102	102	102	102	102	102	102	102	102	102	102	102	102	102	102	102	102	102	102	102	
102	102	102	102	102	102	102	102	102	102	102	102	102	102	102	102	102	102	102	102	1	1	102	102	102	102	102	102	102	102	102	102	102	102	102	102	102	102	102	102	102	102	102	102	102	102	102	102	102	1	1	102	102	102	102	102	1	1	1	102	102	102	102	102	102	102	102	102	102	102	102	102	102	102	102	102	102	102	102	102	102	102	102	102	102	102	102	102	102	102	
102	102	102	102	102	102	1	102	102	1	1	1	102	102	102	1	666	666	666	102	102	102	102	102	102	102	102	102	102	102	102	102	102	102	102	102	102	1	1	1	1	102	102	102	102	102	102	102	102	102	102	1	1	1	1	1	1	1	102	102	102	102	102	102	102	102	102	102	102	102	102	102	102	102	102	102	102	102	102	102	102	102	102	102	102	102	102	102	102	102	
102	102	102	102	102	102	102	102	102	102	102	102	1	102	102	102	102	102	102	102	102	301	1	1	1	701	1	1	1	303	1	1	102	102	102	102	102	102	102	102	102	102	102	102	102	102	102	102	102	102	102	102	102	102	102	102	102	102	102	102	102	102	102	102	102	102	102	102	102	102	102	102	102	102	102	102	102	102	102	102	102	102	102	102	102	102	102	102	102	102	
102	102	102	102	102	102	102	102	1	1	102	1	1	1	1	102	102	102	102	102	102	102	102	102	1	1	1	1	1	1	1	1	1	1	1	304	1	1	1	1	1	1	1	1	1	1	1	1	102	102	102	102	102	1	1	1	1	1	102	102	102	1	1	1	102	102	102	102	102	102	102	102	102	102	102	102	102	102	102	102	102	102	102	102	102	102	102	102	102	102	
102	102	102	102	102	102	1	1	1	1	102	102	102	102	1	1	1	102	102	102	102	102	102	102	102	102	102	102	102	1	1	1	1	1	1	1	1	1	11	12	12	12	12	12	12	12	11	1	1	1	1	1	1	1	701	1	1	1	102	102	102	102	102	102	102	102	102	102	102	1	102	102	102	102	102	102	102	102	102	102	102	102	102	102	102	102	102	102	102	102	
102	102	102	102	1	1	1	102	102	102	102	1	102	102	102	102	1	102	102	102	102	102	102	102	102	1	1	1	1	1	1	1	1	1	1	1	1	1	11	1	1	1	1	1	1	205	11	1	1	1	411	1	1	1	1	1	1	1	1	1	102	102	102	102	102	102	102	102	102	102	102	102	1	102	102	102	102	102	102	102	102	102	102	102	102	102	102	102	102	102	
102	102	102	102	102	1	1	1	1	1	1	102	411	411	1	1	102	102	102	102	102	1	1	1	1	1	1	1	1	1	1	1	1	1	1	1	1	1	11	1	1	1	1	1	1	1	11	1	1	1	1	1	1	1	411	1	1	1	1	102	102	102	102	102	102	102	102	102	102	102	1	102	102	102	1	102	102	102	102	102	102	102	102	102	102	102	102	102	102	102	
102	102	102	102	102	102	102	102	102	102	102	102	102	102	102	102	102	102	102	102	102	1	11	12	12	12	11	1	1	1	1	1	1	1	1	1	1	1	11	12	202	12	12	12	12	12	11	1	1	1	1	1	411	1	1	1	1	1	1	1	1	1	102	102	102	1	1	411	411	1	1	666	102	102	102	102	102	102	102	102	102	102	102	102	102	102	102	102	102	102	
102	102	102	102	102	102	102	102	1	1	1	1	102	102	102	102	102	102	102	102	102	1	11	1	1	402	201	1	1	1302	1	1	1	1	1	1	1	1	1	1	1	1	1	1	1	1	1	1	1	1	1	1	1	1	1	1	1	1	1	1	1	1	1	1	102	102	102	102	102	102	102	102	102	102	102	102	102	102	102	102	102	102	102	102	102	102	102	102	102	102	
102	102	102	102	102	1	1	1	1	1	1	102	102	102	102	102	102	102	102	102	651	1	11	1	1	1	11	1	1	1	1	1	1	1	1	1	1	1	1	1	1	1	1	1	1	1	1	1	1	1	1	1	1	1	1	1	1	1	1	1	1	1	1	1	1	102	102	1	1	102	102	102	1	102	102	102	102	102	102	102	102	102	102	102	102	102	102	102	102	102	
102	102	102	102	102	102	102	102	102	1	1	1	102	102	102	102	102	1	102	652	1	1	11	1	203	1	11	1	1	1	1	1	1	1	1	1	1	1	1	1	1	1	1	1	1	1	1	1	1	401	666	666	666	666	666	666	1	1	1	1	1	1	1	1	1	1	102	102	102	102	102	102	102	102	102	102	102	102	102	102	102	102	102	102	102	102	102	102	102	102	
102	102	102	102	102	102	102	102	102	102	102	102	102	1	1	102	102	102	102	102	102	1	11	12	12	12	11	1	1	1	1	1	1	1	1	1	1	1	1	1	1	1	1	1	1	1	1	1	1	1	1	1	1	1	1	666	666	666	666	1	1	1	1	1	1	102	102	102	1	102	102	102	102	102	102	102	102	102	102	102	102	102	102	102	102	102	102	102	102	102	
102	102	102	102	102	102	102	102	102	102	1	1	1	102	102	1	1	102	102	102	102	1	1	1	1	1	1	1	1	1	1	1	1	1	1	1	1	1	1	1	1	1	1	1	401	1	1	1	1	1	1	1	1	1	1	1	1	1	666	666	666	1	1	1	1	1	1	102	102	102	102	102	1	102	102	102	102	102	102	102	102	102	102	102	102	102	102	102	102	102	
102	102	102	102	102	102	102	102	102	1	1	1	1	1	1	1	1	102	102	102	102	1	1	1	1	204	1	1	1	1	1	1	1	1	1	1	1	1	1	1	1	1	1	1	1	1	1	1	1	1	1	1	1	1	1	1	1	1	1	666	666	666	1	102	102	102	102	102	102	102	102	102	1	102	102	102	102	102	102	102	102	102	102	102	102	102	102	102	102	102	
102	102	102	102	102	102	102	1	1	1	1	102	102	102	102	102	102	102	102	102	102	102	102	102	102	1	1	1	1	102	102	1	1	1	1	1	1	1	1	1	401	1	1	1	1	1	1	1	1	1	1	1	1	1	1	1	1	1	1	1	1	1	102	102	102	102	102	102	102	102	102	102	1	1	102	102	102	102	102	102	102	102	102	102	102	102	102	102	102	102	
102	102	102	102	102	102	102	102	102	102	102	102	102	102	102	102	102	102	102	102	102	1	1	1	1	1	102	102	102	102	102	102	1	1	1	1	1	102	102	102	102	102	1	1	1	1	1	1	12	12	11	1	1	1	1	1	1	102	102	102	1	1	1	652	652	102	102	102	102	102	102	102	102	1	102	102	102	102	102	102	102	102	102	102	102	102	102	102	102	102	
102	102	102	102	102	102	102	102	102	102	102	102	102	102	102	1	102	102	102	102	102	102	102	102	102	102	102	102	102	102	102	102	102	102	102	102	102	102	102	1	102	102	102	1	1	1	1	866	1	708	11	1	1	1	1	1	1	102	102	102	102	102	102	102	102	102	102	102	102	102	102	102	102	102	102	102	102	102	102	102	102	102	102	102	102	102	102	102	102	102	
102	102	102	102	102	102	102	102	102	102	102	102	102	102	102	1	1	102	102	102	102	102	102	102	102	102	102	102	102	102	1	1	1	1	1	1	1	1	1	102	1	1	1	102	1	1	11	12	12	12	11	1	1	1	1	1	1	1	1	1	1	411	1	102	102	102	102	102	102	102	102	102	102	102	102	102	102	102	102	102	102	102	102	102	102	102	102	102	102	102	
102	102	102	102	102	102	102	102	102	102	102	102	102	102	411	1	102	102	102	102	102	102	102	102	102	102	102	102	102	102	1	102	102	102	102	102	102	102	1	102	1	102	1	102	102	102	102	102	102	102	102	102	1	1	1	1	102	102	102	102	102	102	1	1	411	1	652	652	652	102	102	102	102	102	102	102	102	102	102	102	102	102	102	102	102	102	102	102	102	102	
102	102	102	102	102	102	102	102	102	1	102	102	1	1	1	1	1	102	102	102	102	651	652	1	1	1	1	1	1	1	1	102	102	102	102	102	102	102	1	1	1	102	1	1	1	1	1	1	1	1	1	1	1	102	102	102	102	102	102	102	1	102	102	102	102	102	102	102	102	102	102	102	102	102	102	102	102	102	102	102	102	102	102	102	102	102	102	102	102	102	
102	102	102	102	102	102	102	102	1	102	1	1	1	411	102	102	102	102	102	102	102	102	102	102	102	102	102	102	102	102	102	102	102	102	102	102	102	102	102	102	102	102	102	102	102	102	102	102	102	102	102	102	102	102	102	102	102	102	102	102	102	102	102	102	102	102	102	102	102	102	102	102	102	102	102	102	102	102	102	102	102	102	102	102	102	102	102	102	102	102	
102	102	102	102	102	102	102	102	102	102	102	1	1	1	1	1	102	102	102	102	102	102	102	102	102	102	102	102	102	102	1	102	102	102	102	102	102	1	102	102	102	102	102	102	102	102	102	102	102	102	102	102	102	102	102	102	102	1	102	102	102	102	102	1	102	1	102	102	102	102	102	102	102	102	102	102	102	102	102	102	102	102	102	102	102	102	102	102	102	102	
102	102	102	102	102	102	102	102	102	102	102	102	102	102	102	102	102	102	102	102	102	102	102	102	102	102	102	1	102	102	1	102	102	102	102	102	102	102	102	102	102	102	102	102	102	102	102	102	102	102	102	102	102	102	102	102	102	102	102	102	102	102	102	102	102	102	102	102	102	102	102	102	102	1	102	102	102	102	102	102	102	102	102	102	102	102	102	102	102	102	
102	102	102	102	102	102	102	102	102	102	102	102	102	102	102	102	1	102	102	102	102	102	1	102	102	102	102	102	102	1	102	102	1	102	102	102	102	102	102	102	102	102	102	102	102	102	102	1	102	102	102	102	102	102	102	102	1	102	1	102	102	102	102	102	102	102	102	102	102	102	102	102	102	102	102	102	102	102	102	102	102	102	102	102	102	102	102	102	102	102	
102	102	102	102	102	102	102	102	102	102	102	102	102	102	1	1	102	102	102	102	102	102	102	102	102	102	102	102	102	1	102	102	102	102	102	102	102	102	102	102	102	102	102	102	102	102	1	1	102	102	102	102	102	102	102	102	102	102	102	102	102	102	102	102	102	102	102	102	102	102	102	102	102	102	102	102	102	102	102	102	102	102	102	102	102	102	102	102	102	102	
102	102	102	102	102	102	102	102	102	102	102	102	102	102	102	102	102	102	102	102	102	102	102	102	102	102	102	102	102	102	102	102	102	102	102	102	102	102	102	102	102	1	102	102	102	102	102	102	102	102	102	102	102	102	102	102	102	102	102	102	102	102	102	102	102	102	102	102	102	102	102	102	102	102	102	102	102	102	102	102	102	102	102	102	102	102	102	102	102	102	
102	102	102	102	102	102	102	102	102	102	102	102	102	102	102	102	102	102	102	102	102	102	102	102	102	102	102	102	102	102	102	102	102	102	102	102	102	102	102	102	102	102	102	102	102	102	102	102	1	1	102	102	102	102	102	102	102	102	102	102	102	102	102	102	102	102	102	102	102	102	102	102	102	102	102	102	102	102	102	102	102	102	102	102	102	102	102	102	102	102	
102	102	102	102	102	102	102	102	102	102	102	102	102	102	102	102	102	102	102	102	102	102	102	102	102	102	102	102	102	102	102	102	102	102	102	102	102	102	102	102	102	102	102	102	102	102	102	102	102	102	102	102	102	102	102	102	102	102	102	102	102	102	102	102	102	102	102	102	102	102	102	102	102	102	102	102	102	102	102	102	102	102	102	102	102	102	102	102	102	102	
102	102	102	102	102	102	102	102	102	102	102	102	102	102	102	102	102	102	102	102	102	102	102	102	102	102	102	102	102	102	102	102	102	102	102	102	102	102	102	102	102	102	102	102	102	102	102	102	102	102	102	102	102	102	102	102	102	102	102	102	102	102	102	102	102	102	102	102	102	102	102	102	102	102	102	102	102	102	102	102	102	102	102	102		102	102	102	102	102	
102	102	102	102	102	102	102	102	102	102	102	102	102	102	102	102	102	102	102	102	102	102	102	102	102	102	102	102	102	102	102	102	102	102	102	102	102	102	102	102	102	102	102	102	102	102	102	102	102	102	102	102	102	102	102	102	102	102	102	102	102	102	102	102	102	102	102	102	102	102	102	102	102	102	102	102	102	102	102	102	102	102	102	102	102	102	102	102	102	102	
102	102	102	102	102	102	102	102	102	102	102	102	102	102	102	102	102	102	102	102	102	102	102	102	102	102	102	102	102	102	102	102	102	102	102	102	102	102	102	102	102	102	102	102	102	102	102	102	102	102	102	102	102	102	102	102	102	102	102	102	102	102	102	102	102	102	102	102	102	102	102	102	102	102	102	102	102	102	102	102	102	102	102	102	102	102	102	102	102	102	
	
