ID	MESAGE	CinvID0	CreaID0	CreaX0	CreaY0
0		0	0	0	0
2	rocks	0	0	0	0
11	wall	0	0	0	0
12	wall	0	0	0	0
102	A_tree._You_attack_it_but_it's_not_very_effective____	0	0	0	0
201	doors_open	0	1	0	0
202	locked_doors	0	0	0	0
203	A_chest!_It's_empty,_though_:(____	0	0	0	0
204	A_chest!_There's_something_inside..____	652	203	0	0
205	A_chest!_There's_clothes_inside._They_really_fit_you,_plus_you_feel_pretty:_confidence+10!	651	203	0	0
301	me	0	0	0	0
302	Hey_stranger!_Be_careful,_there's_lots_of_traps_around.____	0	0	0	0
303	New_face,_huh?_Advice:_don't_talk_to_my_friend._He's_really_agitated.____	0	0	0	0
304	Scam!	0	305	0	0
305	I_swear_i'll_put_you_to_the_ground____	0	407	0	0
401	erghur_tarak_agash!!	0	651	0	0
402	last_words,_human?	652	1303	29	17
406	En_garde!	651	0	0	0
407	You_asked_for_it!	1651	1	29	11
408	You_killed_my_roommate!!_Thank_you!____	0	409	0	0
409	Finally,_a_house_to_stay_in.	651	0	0	0
411	woof!	0	0	0	0
651	a_potion	0	0	0	0
652	a_potion	0	0	0	0
666	oh_snap!	0	0	0	0
701	a_sword!	0	0	0	0
702	a_bow!	0	0	0	0
708	a_claymore!	0	0	0	0
866	finally,_the_monster._let's_end_this____	0	0	0	0
1302	don't_go_there!_there's_an_orc_inside!____	0	0	0	0
1303	thank_you,_kind_sir!_How_will_I_ever_repay_you?_Here,_take_this_potion____	651	1304	0	0
1651	Door_key	1651	201	40	16
2052	_	652	408	40	16
4072	_	0	1651	35	12
4082	But_you_stole_my_clothes.._so_prepare_to_die,_obviously!____	0	0	0	0
