﻿evade no_of_frames x y
51 72 21 24
                             ....zXXXC:.`    ...                        
                            .+JOo+jzdjkc.  ..?++.                       
                            ,IvdSwZOUXI.....jkO+:.         .            
                           .WOz+?1+1lz+...^+zKuX+!.      .`d            
                          .wV+z1?1?+++?++++`z:.Xwk&. ....``q            
                         wOC!`.z+.?+?.:.++1+?  .WbbW`.;`` .J            
                        .wOt. .?+;.+:::++++=`+..?TWf.;.zvO?!            
                        ?UI   .=?++;+++;;11?:zzzOvuXZyUnZi..            
                         `^   ?==1;+?++:?++?`OzrXXXXWWWqkpf0            
                       ...    .eOz=1+j+ix+uHJZVOY777"T777CC1            
                      JwOO++ .MHNNMMMMNNNNNNM.` ...^+???????            
                      ?!` ?! W#NNNNNMMNNNNNNNP!`!``...                  
                             MNNNNNNNMMNMMNNN#++;;!...+&zzwz            
                             dMMNNNNNMMMNMMNM# ??71zOwwzwrww            
                             JMMMNNNNNMMMNMMMF`.......   ??7            
                             .MMMMH9WMMMNMMNM%        `!??+.            
            `                 4HHWkwwWNNN#HWW%                          
            ``                 MMHHWXqMMNNMNM\                          
            ` `                dHMHWSWqHkHMt                            
            `` `               .MMHHPWHHMM#UUUTWUU9UUk4UHUVU            
            .`     `           .#H@gLJm@MNgJnm&XaAkHdhmdHgmd            
                            ....?wu0:..`    .+.                         
                            ??zoJ++ZJZl`` ..11?.           .            
                           .I+jVv0zwO1+. `zz+??+.         .w            
                          .dIz?!+++11++..`1Owz+++.       `JZ            
                        ..zv!j?.`++?+++?+??+!`wXA&. .....`XX            
                       .Il;`  ++.`;+..?+++?!  .WVVW .?`! .,W            
                       ,O?!   ++?.::+:;;;+?!...J749.; j+CC!.            
                       ?X,    +?;;++:+++?+?;.++ztrvwXVnzl. ,            
                         `   .+?+++.+.^.++;!zzzwwwXXXXffyZIj            
                       .     .mJzz1.+J!j++dswZOVT77TTT77TTC+            
                     .zzz+: .H@HHM#MM#HMHHHH|   .....?++????            
                     ??!`?! ,HHHHHHH#HHHHHHHN`````` ..                  
                            JHHHHHHHH##H#HHHH+...`.....J+&zt            
                            .#HHHHHHHN#####HM???11zzzOtttOtz            
                             M##HHHHHMN######` ...     `?77T            
                             J##MMHWMM######t       ```.?...            
                             .MHkXOtXHH##XXU:                           
                              ,HHkXXWHMHH###`                           
                               @HHkyWkbpHHf                             
                               HHHXyXkqqM#UVVUTWTVVU4p4TWYVT            
            `                  WMHHW.qmgMbJJ&A+d&aXkuhkdW+md            
                             .+dykwZ:`                                  
                          . `.zXZXC`                                    
                          `..^?V1c+.     .;..             .z            
                          .zwww0duU+.....zz++             zw            
                        .J+CC?7TOTTz?!.`+UwO+.           Jwz            
                     ..+vv1+!;?1?zwXvOzz:.jVwz!       ..JXuC            
                    J?v!!``+!.?+?OOwzrOOA+wky&+..J+.+  .WWf1            
                   .v?!    .+..`+1?1???++`CpWWW|JJ?`,..Xk0..            
                    :      .;?+;;++??+;?+`.,"TW1rO..1o!?HkAJ            
                           ??+++?++!!++?+.=1lOOvzuXdkwu&JdUW            
                           .+11+++,+:^.?j.OwOwuZXVfWUWyZcvUV            
                   ......  .@mge&&+mJdmkHm?!!``   `.?+++++==            
                   zrvC+. .HHHHH###HHHHHH@L  `^.^`!!``    ``            
                          ,HHHHHH##HHHHHHHM,.  ..``  .....J1            
                          .HHHHHHHH###HHHHHb+++..?zzltttI?+`            
                           #####HHHH#N####Hr  `???771zwwwwww            
                           M####HHHH#NNN###\ !`..!...    `!?            
                           d####HHHHHNNMMMM`         ``??7C1            
                           .######MMM##NXuA                             
                           .4MHWZXOOWMHHMMMUVUTWTUYU4p4YHY9U            
                             WWWWkXwfpppMNeJ&A+d&akWdhAdW&kd            
                              ..                                        
                              `.`                                       
                                                                        
                                                                        
                                                                        
                             ``                                         
                        `     `                                         
                         ` .                               .            
                       .+. `.` . `                         ;            
                 .^?...+;`.`    `         `     ` `      `..            
               .++.+;+++``^.  ``          ...   .   ....``zt            
               .v` `?+```  . `       `     ``` ^......  `zwo            
                !                         . ..`.?+++++?!jwvv            
                           ```` ```  .   .`.?`.+++?????:`!!!            
                   ,,..    .. `   `  ```          ..^^^`````            
                  .?!!`    .`.. ` .` .....                              
                          .tttO:  .zltl=?+.    `  .......:!`            
                          `rrrtOOzzttrOOz++,.....?;;;;;;+...            
                          zrrrrrrrrrrrrrOzwA.     ``???zzzz=            
                          dXwwvvvwzzvzwwdMMMBUYHYBBHWHUUWUKU            
                          +ppfWkXkXXkXWWMNg&mA+d&&AkdhkdHaNd            
                                                                        
                                                                        
                                                                        
                                                                        
                                                                        
                                                                        
                                                                        
                                                                        
                      .                                    .            
                      +.                                   .            
            . `..J.  .:+..   `                   `    .   ..            
               `?;+.,;:;:^               ``.   .  .... `..++            
                 1++;+;;!`. `              ^  ^^.....  ?zvvz            
                  1z+;!`  . ````           ^. .+++11+?!jzzuw            
                   `?!    .... ``  `       ``  ?1+?+11:????!            
                  J+...   ^....`       `    `z++......:`!!!!            
                 J???`.   ..^....  ```       zOOz!``                    
                         .G&J..````...JJn.   `!?..i.....++!!            
                         dkyyyyWyyyVVVVyXk.....?+?????;.....            
                        .gmHkWfffWVffpppWMNUUUTWYYYMW@WWMW#W            
                        .@@gggHHHmHHHgggMNgJnWdWQmQHghmgk&hd            
                              .zOvv+``                                  
                              .tlz++..                                  
                              .zOOI+!.                                  
                               .lzO1:`                                  
                               .wXO+:                                   
                              izvvOz+.                                  
                        .  `` `.1OzI+`                                  
                     ..`O,  `` .. ??!:...                               
                    ?wXvzw.....Ijz1j+1,!                                
                     wu0Owl++..!.!`````.   .       `   ..               
                   .dvtrtZ6?;++..^^^^.. ` .v+..  ` . `  ....            
                   dZzOO? `??;;+`..^^. `` ?`++=zO:.. .J++.?z            
                   JuwZ!   ;;;:.^...``` `  .???+..Oz+?``.dWb            
                    ?!     +;;;;:^^....`` .+zztrvzOwwO..dkkH            
                           ;?+;!^^^^...`` .lOzwXXXXnwwX+W9UU            
                   ...    .??+?;.^....  ` .?7?????+++;;+++++            
                  ,zzz..  .mazz1+e+jm+J.gm, ...``!!`````````            
                  `   `` .@@@@@HH@HHHHHH@HH:  ...      .....            
                         .@HHHHHHHHHHHH@@@@I+....1zlzl=v?!!`            
                         .HHHHHHHHHHMH9TMMMMYHYMWH#MHHWBMW#W            
                         .#HHHHHH###Nggg+NgJnmgWggQkghmdMgNd            
                                .lll?;:`                                
                                .lwVIzz!`                               
                                 ?lzOzz`                                
                                 .wOz1;                                 
                                +OuuwI:                                 
                          .`     ?OXtI?`                                
                         +O,` ` .. ??z1..                               
                        ,tOI....J?I++x.+v!                              
                       .OOOXOlzxIi7??????!`                             
                      .wzwwkwzZOI!^^^...  ` +.............              
                     .wwwyXUY1+z+```.^..    +;+1z??..`??,JI.            
                     JyZZUC  ?;;+.^...``    `...?..!. .,++..            
                     `777`   ;??;+..^..```` .++ltO:.1I?``.gW            
                            .?+?;++:^...``  +zzOrrzOnz...JWk            
                            .???;+^.^....`` zzwzwXXZWuXX+dUU            
                    .....   .ez=??+,.J,.`..,?7????!!+;;;++++            
                   .zOz:^  .W@@@MHHNHHHHH@@gr...^`!!!!``````            
                        `  H@@@HH@HHHHHHH@HMr  ...     .....            
                          .H@HHHHHHHHHHH@H@MK.....+1=zlz?!!`            
                          .HHHHHHHHHHHHHMMMMMHYHYWBMW@BWMW#W            
                          .HHHHHHHHH#MMWdNggmWgWggmmghmdHaNd            
                                  ...?..                                
                                 .zlv1+!`.                              
                                  1zz+++.                               
                                  1lzO;+`                               
                                   1zt1+.                               
                                   ,Oz1+`                               
                                 .+wvrO+.                               
                             `  ` ?zOOtz!                               
                           i      . ????,...                            
                          .wo....nJj++o`lJ:`   .         .+?            
                          JvX+1+.3`=?!?!?!!`   +.     .zzZ?`            
                         .zXzkOz++.^^..^````  J=i...JtO?!...            
                        .wXZV7v1++.^``...`  ` `1Oz=llv!.++++            
                        .ZZXXVOz1++^..^. ``   .+++z?i.i.` .d            
                         7TUU4OwOw+..... `  ` ....uwXwX&wIOW            
                             .OXZwv!```^..    zwwuZZXVUXXI?T            
                     .+.,..  .wOZOv+^.^^`.  .     ....+++?++            
                     =z?!:.  .mmAyz+j..J,``..`...````                   
                            .H@HHHHHHH@HH@HM@&..```......J+?            
                            H@HH@@HH@HH@MMMMMMBHBH#MW@WWMB#W            
                           .HHHHHHHHHHH@MNggNNgXaekHdNHdMgNd            
                                  .jrrOz.                               
                                  ttlz;!.`                              
                                  JOrO1Ol.                              
                                  `llOz+.`                              
                                   .lOOz.                               
                                   .wwOz:                               
                                 .zwuuzI+`                              
                             ..  .zvvwvI!                               
                           .......^?OZ1,..     ...                      
                            w+.JzIOvz:d.X?`    ++.    .zww.             
                           .I1+?`C?C=??zz!!`  JZzz. .duuXk!`            
                           dWWO++`++`+;;;... .Juwww.,k2` .J?            
                          ,XV0OO++^.?+.^`^`..` jXXWZyV\.l+??            
                          j&wyz=?;!.^```..^`.!..zXZWV=,z.  w            
                          .tll,z?+:.`.^.`...`.zO&cTXidXXuV1W            
                          wwwOI1+1;:+..^^`.`.`OwZOVUVVTTTC?C            
                      Jz+IZZ1Ozz?+++``..^...:!   ....+++????            
                     .77?j1\: gxzz++,++.....+;.````        .            
                             .MHH#HMMMMMMHHH@Hx.``....J++zz+            
                             WHHHH#HHHHHMMMMMMMMHH#MH@WWMW#B            
                             MH#HHHH##HHMNggNNgkggQHdNmdMgNd            
                                 jtlz?+.`                               
                                 1OZVvCv`                               
                                  ztwOl+`                               
                                  .wwZI:                                
                                 ..XXwOz.                               
                              ``.+wuX0v`                                
                            . `.`zwXV!..`    ...                        
                            ..II.J++IJI;`  ` ?+;+                       
                            `JjVzwZJVZ+..``?w&.J;.                      
                           .o+?+++.++++....`?wO1.i!                     
                           zU1++`++?;+?;,+..+zCw&o,`  . ``              
                        ..zZ!?++`.`++.`^`+J++` JyyXw;`!  .?:            
                        ,==;  +!:....`+..+;++ .+CyVf\.z?I!!?            
                       .OO?!  ;;::.^:.`:+++;? ?=z&JXzXJ?...X            
                        zO    +?;+.::+.``++;+ =rwwwXXXXZZIjH            
                       .`!    ?1z+;.`+.:..`:&.v7777777+771+?            
                     .1z1+:   JHgmge&+daJHjk@h ......!???!!!            
                     ??!``!  d@M@HHHHHHHHH@@@@r`` .       ..            
                             WHHHHH@H@HH@HHH@HN.....?++zzz?!            
                             dHHH@H@@HHHMMMMMMMMYH#HW@WWHW#W            
                             .MHHHH@H@@MMNggNNgkggQkuhmdHaNd            
                                .tww+&+,.                               
                                .rOwI1z+`                               
                                 .OwZOz!                                
                                  XkwzI.                                
                                .zXZZwv!`                               
                                +wWZY^`      ..                         
                            ..J,??Cjlo..   `.++.                        
                             JCdOw0duUI... .JOz;+                       
                           ..++?+?COTCI?! ^+dXOz+.                      
                       ...JOIz?+J?++1zz+++..?XZXOz.       .             
                      ,?z+!!`+;+?+?ZXXXwtOI.uwz+lzi ... `  .            
                     +??:    `++:.?X0U0Zz1;?4fWXXXX.,`! .??.            
                     :  `    .;;;++=vI1?++;+..TWpWk! ,=?!`.J            
                             .;+;;++;+;!!+?;:J+z&JzwkG,:...W            
                             .?+?+;::+.`.^`+!zzwwwXXyWWZX+XH            
                      ..     .uo?1z++..+.JeJJC7=77777?+11+??            
                     ,zzz:`  .HHHMNQmggHNMH@Mo.. ^:+!?!!!!``            
                     ?`` !`  HMHHHHHH#HHHHHHH@c`...     ....            
                            .MHHH@HHHHHHHHHHMHN...J1zzllv?!!            
                             qHHHHHHHHHHMMMMMMMMBH#MWHWWMWMH            
                             .HHHHHHHHHHMNggNNgNgaQmghmdHaNd            
                                 .Jyww..                                
                                .rwrz+;.!                               
                                 wwwyz&+.                               
                                 OvOwz1!`                               
                                  zrzOI:`                               
                                  ,yXzz:                                
                                .JXyZuO+.                               
                              `.`wXWX0tv`                               
                          ..^...^+OXV4...      ..                       
                          z++.AJwzoy+ZJXz`    .++                       
                  ..+.   ,uIz+3?TCTGzdGz...  .yzz.       ...            
                .z++zOrrXXwIlz++?+.?+1+++.. `zXwwz .... ` ..            
                1C` ?zl1zwv`?=?1.:?+.:+!!:.`.?XyXX,.J.:..+..            
                .     ??+:`  ??+`!.?+?!...... .7UC1..JC+^`.J            
                             .+;;.`.`..`..JzOzzI.jw\dXs&&JJH            
                             .?+;:::..++wXWbkXXXwY6JfWWWWzUW            
                      .....  ,z??++.^:?1vUWHH=^!```!+++++zzz            
                     .OOO++  +zlllz+;:+++?+1u ...`!?!```````            
                         ``  .mggggmga&Qa+NdHL...``  ....J+=            
                             .NNNNNMMMMMMMMMMMMMHMHMM#HHMH#W            
                             MNNNNMNNNNNMNggNNgMgmHMdNNgNgNd            
                                                                        
                                   ..J...                               
                                  +OOvz+!.                              
                                  +ltz++..                              
                                  1tOOz+!.                              
                                   1lwO=;`                              
                                   .wtz1!                               
                                 ..wuuzI+.                              
                              `   1wzZwI+.                              
                          .+ `` `. ?ztttc`                              
              !``i+...   .ll.. ...J,`??!+.I+.   .                       
                  ??zI   .z=O+...+?IZ1J:?&C:.   +          .            
                    O=: .===wyz+.J`?!?`!+!:`.  ,t;  ....``              
                    Ozz1OlltZT??++..`+::.:^``. ?zw.`.?.` .?!            
                    .vOzzll?  i??;;:````^^`..` .+Oo.`.+v1!!.            
                     1zwOv!   .+;;;:...^`..`. ` `?Oo.`CJ1..j            
                      `!`      ??;;!....^ ... ` ..?X+..J?CjW            
                        .     ,=1+;:...^^..`    7777?Wkwwyz+            
                      ,zzc..  +?1++++:::^^...   .....vHWXVo!            
                      ??``!` .gsz?++++++J#HBBH9HB9V9UkWUMB#W            
                             .HHHHHNmgggJNg+aNgHggQNgNmdMgNd            
                                                                        
                                   .uwOo.                               
                                  jOrOz+..                              
                                  .rwyzjz+                              
                                  .OttO++.`                             
                                   .ttwzv!                              
                                   .uwtv?`                              
                                  `jzX0wv.                              
                            ..     ` ?Izz..                             
                         .JOrzi  `  ..  ?!. .                           
                         .tvzuw;.. `..I+!1..v                           
                         JuuVOdP?+...C.!??````                          
                       .wrOtlOW$;;:........``  ..                       
                      JZXtlv! 1+;;:::^.` ..``  ++;?+=l:..`              
                      Xuvrv`   ;;;+:`^.... `   `!!!??!``z+.!            
                      1Zv!     ?;;;+.^... ```  ?+1zz`.z?O?1z            
                              .+??;;::^^...``` +lttwwXJc..,X            
                              J???;;:^^^^..``` zwwwXXXWZu+XH            
                       .      ????+;+:^^....`  7777777177+?+            
                     .zzz+`  .Hmexz=+uc+d#HHMMBHYBBHWHWYHYBU            
                     `?!``! .M@MHHHHHHHHMNggNNgNggmkdhmgkgmd            
                                    .....                               
                                   JwVOI+!.                             
                                  .ttlz;+.`                             
                                   twXXvzz`                             
                                   `tOwOz+`                             
                                    wOwrI;                              
                                  .zzXwOz:                              
                                    ?wXOz!.                             
                            Jz, ``    ??++`                             
                          .zllO+..  .ci.....+.                          
                          zrOzOk++...Ijz++.1+.                          
                         jrrOOwSz?i+=i.^. ``    .  .... ....            
                        +OvzwwwkAzXOV1!.``.``   ;;;++?!!??1z            
                       jwwXXyWXY7+?+?`.``.`    .??!.... !  .            
                       uZZZXV^ ::;:::^^..  `    ..+..!, .`:.            
                       ?777`   .;;;;;.^..` ``` .+zll;.?!?``.            
                               +??;;;``^^.  `` .ztrvwunoJ..X            
                              .????;;`^^..  `` .wzXXXyXXZ:d9            
                       ...    .xzzz=+++:JJ.^ .,?!??!:+;+++++            
                      zzzz:  .d@HHNmmgHgd#MMMMMMBUBHWHUYHY9U            
                      `   ` .HHHHHHHHHHHMNggNNgMgAkHghmgHgNd            
                                                                        
                                                                        
                                  .zzwOI.                               
                                 .ttt??+..                              
                                  tOww1zz.                              
                                  1tlOz++.                              
                                   jtwzlz`                              
                                   JXOz1:                               
                                 .+wzXwv:                               
                               ` `.1OrIz+!                              
                           +       ``?1+?..               .+            
                          jrw.`.``.?i....?.v`            ?;.            
                         .wrzI.....r?O+v+.?!``  .     ...1;             
                        .wzOrXz=z+.`.^^..... `  +   .Jllv```            
                        JuuuvXOz??;!`^``...`   `tZl==lv!.+?`            
                       .uZZX!?=lz?+`^.`...`    ?1+1zv!.1!+?w            
                       JyyyWAwXVI?++.`^.` `````?+?!.+++:  dW            
                       `TWWWWHkOOzz;......  `  J+ywXXXZZvwWH            
                              wwwwwz+`:.`^. `. ?OVUYT7TT+?1+            
                     .z++:.  .wXZwwZ!`.^J#HBBHUWUBBHWHWYHY#B            
                     z??!+`  .mkXXZz++,.JN+Jnm+WQQQHdhmgHgmd            
                                                                        
                                                                        
                                                                        
                                  .J++..                                
                                 +OOz+:`.                               
                                 1lOz++..                               
                                 1tOOz?!`                               
                                  1OtC1z.                               
                                  .OOz1+                                
                                 .jzzrI+.                               
                              ` ?zwzOrI++`                              
                           ..``` 1trrOOv`              ,+i+             
                         .,.... ..?CtO1...      :.    ?1=zv`            
                         .O++..Iz1..J,J!OI:    .+.   .zOv!              
                         JzI++.r?wzzw++Oz+..  .wOzi  dA;```.            
                        .ZZkwz+.::.:^::;+...  ?XvwwAdZZ|,?!`            
                        JXfWr1Oz+:::+.`+:`+?.. ?OXXZXyX`+!ja            
                        wyU$ ,tz?+^..`+.^..`?.,+`wzXVy'...Wk            
                        .TkUVSz?++:.`+.``..`..zwO,7UWidZjXHW            
                          JrtOIz+;+:::^.`#HWWHWMHM#MHMWBMB#W            
                     ,z++jZXkXw+?1+:::^`JN+Jmm&XggQNdNmdHgNd
                                  ...?..                                
                                 .zlv1+!`.                              
                                  1zz+++.                               
                                  1lzO;+`                               
                                   1zt1+.                               
                                   ,Oz1+`                               
                                 .+wvrO+.                               
                             `  ` ?zOOtz!                               
                           i      . ????,...                            
                          .wo....nJj++o`lJ:`   .         .+?            
                          JvX+1+.3`=?!?!?!!`   +.     .zzZ?`            
                         .zXzkOz++.^^..^````  J=i...JtO?!...            
                        .wXZV7v1++.^``...`  ` `1Oz=llv!.++++            
                        .ZZXXVOz1++^..^. ``   .+++z?i.i.` .d            
                         7TUU4OwOw+..... `  ` ....uwXwX&wIOW            
                             .OXZwv!```^..    zwwuZZXVUXXI?T            
                     .+.,..  .wOZOv+^.^^`.  .     ....+++?++            
                     =z?!:.  .mmAyz+j..J,``..`...````                   
                            .H@HHHHHHH@HH@HM@&..```......J+?            
                            H@HH@@HH@HH@MMMMMMBHBH#MW@WWMB#W            
                           .HHHHHHHHHHH@MNggNNgXaekHdNHdMgNd            
                                  .jrrOz.                               
                                  ttlz;!.`                              
                                  JOrO1Ol.                              
                                  `llOz+.`                              
                                   .lOOz.                               
                                   .wwOz:                               
                                 .zwuuzI+`                              
                             ..  .zvvwvI!                               
                           .......^?OZ1,..     ...                      
                            w+.JzIOvz:d.X?`    ++.    .zww.             
                           .I1+?`C?C=??zz!!`  JZzz. .duuXk!`            
                           dWWO++`++`+;;;... .Juwww.,k2` .J?            
                          ,XV0OO++^.?+.^`^`..` jXXWZyV\.l+??            
                          j&wyz=?;!.^```..^`.!..zXZWV=,z.  w            
                          .tll,z?+:.`.^.`...`.zO&cTXidXXuV1W            
                          wwwOI1+1;:+..^^`.`.`OwZOVUVVTTTC?C            
                      Jz+IZZ1Ozz?+++``..^...:!   ....+++????            
                     .77?j1\: gxzz++,++.....+;.````        .            
                             .MHH#HMMMMMMHHH@Hx.``....J++zz+            
                             WHHHH#HHHHHMMMMMMMMHH#MH@WWMW#B            
                             MH#HHHH##HHMNggNNgkggQHdNmdMgNd            
                                 jtlz?+.`                               
                                 1OZVvCv`                               
                                  ztwOl+`                               
                                  .wwZI:                                
                                 ..XXwOz.                               
                              ``.+wuX0v`                                
                            . `.`zwXV!..`    ...                        
                            ..II.J++IJI;`  ` ?+;+                       
                            `JjVzwZJVZ+..``?w&.J;.                      
                           .o+?+++.++++....`?wO1.i!                     
                           zU1++`++?;+?;,+..+zCw&o,`  . ``              
                        ..zZ!?++`.`++.`^`+J++` JyyXw;`!  .?:            
                        ,==;  +!:....`+..+;++ .+CyVf\.z?I!!?            
                       .OO?!  ;;::.^:.`:+++;? ?=z&JXzXJ?...X            
                        zO    +?;+.::+.``++;+ =rwwwXXXXZZIjH            
                       .`!    ?1z+;.`+.:..`:&.v7777777+771+?            
                     .1z1+:   JHgmge&+daJHjk@h ......!???!!!            
                     ??!``!  d@M@HHHHHHHHH@@@@r`` .       ..            
                             WHHHHH@H@HH@HHH@HN.....?++zzz?!            
                             dHHH@H@@HHHMMMMMMMMYH#HW@WWHW#W            
                             .MHHHH@H@@MMNggNNgkggQkuhmdHaNd            
                                .tww+&+,.                               
                                .rOwI1z+`                               
                                 .OwZOz!                                
                                  XkwzI.                                
                                .zXZZwv!`                               
                                +wWZY^`      ..                         
                            ..J,??Cjlo..   `.++.                        
                             JCdOw0duUI... .JOz;+                       
                           ..++?+?COTCI?! ^+dXOz+.                      
                       ...JOIz?+J?++1zz+++..?XZXOz.       .             
                      ,?z+!!`+;+?+?ZXXXwtOI.uwz+lzi ... `  .            
                     +??:    `++:.?X0U0Zz1;?4fWXXXX.,`! .??.            
                     :  `    .;;;++=vI1?++;+..TWpWk! ,=?!`.J            
                             .;+;;++;+;!!+?;:J+z&JzwkG,:...W            
                             .?+?+;::+.`.^`+!zzwwwXXyWWZX+XH            
                      ..     .uo?1z++..+.JeJJC7=77777?+11+??            
                     ,zzz:`  .HHHMNQmggHNMH@Mo.. ^:+!?!!!!``            
                     ?`` !`  HMHHHHHH#HHHHHHH@c`...     ....            
                            .MHHH@HHHHHHHHHHMHN...J1zzllv?!!            
                             qHHHHHHHHHHMMMMMMMMBH#MWHWWMWMH            
                             .HHHHHHHHHHMNggNNgNgaQmghmdHaNd            
                                 .Jyww..                                
                                .rwrz+;.!                               
                                 wwwyz&+.                               
                                 OvOwz1!`                               
                                  zrzOI:`                               
                                  ,yXzz:                                
                                .JXyZuO+.                               
                              `.`wXWX0tv`                               
                          ..^...^+OXV4...      ..                       
                          z++.AJwzoy+ZJXz`    .++                       
                  ..+.   ,uIz+3?TCTGzdGz...  .yzz.       ...            
                .z++zOrrXXwIlz++?+.?+1+++.. `zXwwz .... ` ..            
                1C` ?zl1zwv`?=?1.:?+.:+!!:.`.?XyXX,.J.:..+..            
                .     ??+:`  ??+`!.?+?!...... .7UC1..JC+^`.J            
                             .+;;.`.`..`..JzOzzI.jw\dXs&&JJH            
                             .?+;:::..++wXWbkXXXwY6JfWWWWzUW            
                      .....  ,z??++.^:?1vUWHH=^!```!+++++zzz            
                     .OOO++  +zlllz+;:+++?+1u ...`!?!```````            
                         ``  .mggggmga&Qa+NdHL...``  ....J+=            
                             .NNNNNMMMMMMMMMMMMMHMHMM#HHMH#W            
                             MNNNNMNNNNNMNggNNgMgmHMdNNgNgNd            
                                                                        
                                   ..J...                               
                                  +OOvz+!.                              
                                  +ltz++..                              
                                  1tOOz+!.                              
                                   1lwO=;`                              
                                   .wtz1!                               
                                 ..wuuzI+.                              
                              `   1wzZwI+.                              
                          .+ `` `. ?ztttc`                              
              !``i+...   .ll.. ...J,`??!+.I+.   .                       
                  ??zI   .z=O+...+?IZ1J:?&C:.   +          .            
                    O=: .===wyz+.J`?!?`!+!:`.  ,t;  ....``              
                    Ozz1OlltZT??++..`+::.:^``. ?zw.`.?.` .?!            
                    .vOzzll?  i??;;:````^^`..` .+Oo.`.+v1!!.            
                     1zwOv!   .+;;;:...^`..`. ` `?Oo.`CJ1..j            
                      `!`      ??;;!....^ ... ` ..?X+..J?CjW            
                        .     ,=1+;:...^^..`    7777?Wkwwyz+            
                      ,zzc..  +?1++++:::^^...   .....vHWXVo!            
                      ??``!` .gsz?++++++J#HBBH9HB9V9UkWUMB#W            
                             .HHHHHNmgggJNg+aNgHggQNgNmdMgNd            
                                                                        
                                   .uwOo.                               
                                  jOrOz+..                              
                                  .rwyzjz+                              
                                  .OttO++.`                             
                                   .ttwzv!                              
                                   .uwtv?`                              
                                  `jzX0wv.                              
                            ..     ` ?Izz..                             
                         .JOrzi  `  ..  ?!. .                           
                         .tvzuw;.. `..I+!1..v                           
                         JuuVOdP?+...C.!??````                          
                       .wrOtlOW$;;:........``  ..                       
                      JZXtlv! 1+;;:::^.` ..``  ++;?+=l:..`              
                      Xuvrv`   ;;;+:`^.... `   `!!!??!``z+.!            
                      1Zv!     ?;;;+.^... ```  ?+1zz`.z?O?1z            
                              .+??;;::^^...``` +lttwwXJc..,X            
                              J???;;:^^^^..``` zwwwXXXWZu+XH            
                       .      ????+;+:^^....`  7777777177+?+            
                     .zzz+`  .Hmexz=+uc+d#HHMMBHYBBHWHWYHYBU            
                     `?!``! .M@MHHHHHHHHMNggNNgNggmkdhmgkgmd            
                                    .....                               
                                   JwVOI+!.                             
                                  .ttlz;+.`                             
                                   twXXvzz`                             
                                   `tOwOz+`                             
                                    wOwrI;                              
                                  .zzXwOz:                              
                                    ?wXOz!.                             
                            Jz, ``    ??++`                             
                          .zllO+..  .ci.....+.                          
                          zrOzOk++...Ijz++.1+.                          
                         jrrOOwSz?i+=i.^. ``    .  .... ....            
                        +OvzwwwkAzXOV1!.``.``   ;;;++?!!??1z            
                       jwwXXyWXY7+?+?`.``.`    .??!.... !  .            
                       uZZZXV^ ::;:::^^..  `    ..+..!, .`:.            
                       ?777`   .;;;;;.^..` ``` .+zll;.?!?``.            
                               +??;;;``^^.  `` .ztrvwunoJ..X            
                              .????;;`^^..  `` .wzXXXyXXZ:d9            
                       ...    .xzzz=+++:JJ.^ .,?!??!:+;+++++            
                      zzzz:  .d@HHNmmgHgd#MMMMMMBUBHWHUYHY9U            
                      `   ` .HHHHHHHHHHHMNggNNgMgAkHghmgHgNd            
                                                                        
                                                                        
                                  .zzwOI.                               
                                 .ttt??+..                              
                                  tOww1zz.                              
                                  1tlOz++.                              
                                   jtwzlz`                              
                                   JXOz1:                               
                                 .+wzXwv:                               
                               ` `.1OrIz+!                              
                           +       ``?1+?..               .+            
                          jrw.`.``.?i....?.v`            ?;.            
                         .wrzI.....r?O+v+.?!``  .     ...1;             
                        .wzOrXz=z+.`.^^..... `  +   .Jllv```            
                        JuuuvXOz??;!`^``...`   `tZl==lv!.+?`            
                       .uZZX!?=lz?+`^.`...`    ?1+1zv!.1!+?w            
                       JyyyWAwXVI?++.`^.` `````?+?!.+++:  dW            
                       `TWWWWHkOOzz;......  `  J+ywXXXZZvwWH            
                              wwwwwz+`:.`^. `. ?OVUYT7TT+?1+            
                     .z++:.  .wXZwwZ!`.^J#HBBHUWUBBHWHWYHY#B            
                     z??!+`  .mkXXZz++,.JN+Jnm+WQQQHdhmgHgmd            
                                                                        
                                                                        
                                                                        
                                  .J++..                                
                                 +OOz+:`.                               
                                 1lOz++..                               
                                 1tOOz?!`                               
                                  1OtC1z.                               
                                  .OOz1+                                
                                 .jzzrI+.                               
                              ` ?zwzOrI++`                              
                           ..``` 1trrOOv`              ,+i+             
                         .,.... ..?CtO1...      :.    ?1=zv`            
                         .O++..Iz1..J,J!OI:    .+.   .zOv!              
                         JzI++.r?wzzw++Oz+..  .wOzi  dA;```.            
                        .ZZkwz+.::.:^::;+...  ?XvwwAdZZ|,?!`            
                        JXfWr1Oz+:::+.`+:`+?.. ?OXXZXyX`+!ja            
                        wyU$ ,tz?+^..`+.^..`?.,+`wzXVy'...Wk            
                        .TkUVSz?++:.`+.``..`..zwO,7UWidZjXHW            
                          JrtOIz+;+:::^.`#HWWHWMHM#MHMWBMB#W            
                     ,z++jZXkXw+?1+:::^`JN+Jmm&XggQNdNmdHgNd            
                                  ...?..                                
                                 .zlv1+!`.                              
                                  1zz+++.                               
                                  1lzO;+`                               
                                   1zt1+.                               
                                   ,Oz1+`                               
                                 .+wvrO+.                               
                             `  ` ?zOOtz!                               
                           i      . ????,...                            
                          .wo....nJj++o`lJ:`   .         .+?            
                          JvX+1+.3`=?!?!?!!`   +.     .zzZ?`            
                         .zXzkOz++.^^..^````  J=i...JtO?!...            
                        .wXZV7v1++.^``...`  ` `1Oz=llv!.++++            
                        .ZZXXVOz1++^..^. ``   .+++z?i.i.` .d            
                         7TUU4OwOw+..... `  ` ....uwXwX&wIOW            
                             .OXZwv!```^..    zwwuZZXVUXXI?T            
                     .+.,..  .wOZOv+^.^^`.  .     ....+++?++            
                     =z?!:.  .mmAyz+j..J,``..`...````                   
                            .H@HHHHHHH@HH@HM@&..```......J+?            
                            H@HH@@HH@HH@MMMMMMBHBH#MW@WWMB#W            
                           .HHHHHHHHHHH@MNggNNgXaekHdNHdMgNd            
                                  .jrrOz.                               
                                  ttlz;!.`                              
                                  JOrO1Ol.                              
                                  `llOz+.`                              
                                   .lOOz.                               
                                   .wwOz:                               
                                 .zwuuzI+`                              
                             ..  .zvvwvI!                               
                           .......^?OZ1,..     ...                      
                            w+.JzIOvz:d.X?`    ++.    .zww.             
                           .I1+?`C?C=??zz!!`  JZzz. .duuXk!`            
                           dWWO++`++`+;;;... .Juwww.,k2` .J?            
                          ,XV0OO++^.?+.^`^`..` jXXWZyV\.l+??            
                          j&wyz=?;!.^```..^`.!..zXZWV=,z.  w            
                          .tll,z?+:.`.^.`...`.zO&cTXidXXuV1W            
                          wwwOI1+1;:+..^^`.`.`OwZOVUVVTTTC?C            
                      Jz+IZZ1Ozz?+++``..^...:!   ....+++????            
                     .77?j1\: gxzz++,++.....+;.````        .            
                             .MHH#HMMMMMMHHH@Hx.``....J++zz+            
                             WHHHH#HHHHHMMMMMMMMHH#MH@WWMW#B            
                             MH#HHHH##HHMNggNNgkggQHdNmdMgNd            
                                 jtlz?+.`                               
                                 1OZVvCv`                               
                                  ztwOl+`                               
                                  .wwZI:                                
                                 ..XXwOz.                               
                              ``.+wuX0v`                                
                            . `.`zwXV!..`    ...                        
                            ..II.J++IJI;`  ` ?+;+                       
                            `JjVzwZJVZ+..``?w&.J;.                      
                           .o+?+++.++++....`?wO1.i!                     
                           zU1++`++?;+?;,+..+zCw&o,`  . ``              
                        ..zZ!?++`.`++.`^`+J++` JyyXw;`!  .?:            
                        ,==;  +!:....`+..+;++ .+CyVf\.z?I!!?            
                       .OO?!  ;;::.^:.`:+++;? ?=z&JXzXJ?...X            
                        zO    +?;+.::+.``++;+ =rwwwXXXXZZIjH            
                       .`!    ?1z+;.`+.:..`:&.v7777777+771+?            
                     .1z1+:   JHgmge&+daJHjk@h ......!???!!!            
                     ??!``!  d@M@HHHHHHHHH@@@@r`` .       ..            
                             WHHHHH@H@HH@HHH@HN.....?++zzz?!            
                             dHHH@H@@HHHMMMMMMMMYH#HW@WWHW#W            
                             .MHHHH@H@@MMNggNNgkggQkuhmdHaNd            
                                .tww+&+,.                               
                                .rOwI1z+`                               
                                 .OwZOz!                                
                                  XkwzI.                                
                                .zXZZwv!`                               
                                +wWZY^`      ..                         
                            ..J,??Cjlo..   `.++.                        
                             JCdOw0duUI... .JOz;+                       
                           ..++?+?COTCI?! ^+dXOz+.                      
                       ...JOIz?+J?++1zz+++..?XZXOz.       .             
                      ,?z+!!`+;+?+?ZXXXwtOI.uwz+lzi ... `  .            
                     +??:    `++:.?X0U0Zz1;?4fWXXXX.,`! .??.            
                     :  `    .;;;++=vI1?++;+..TWpWk! ,=?!`.J            
                             .;+;;++;+;!!+?;:J+z&JzwkG,:...W            
                             .?+?+;::+.`.^`+!zzwwwXXyWWZX+XH            
                      ..     .uo?1z++..+.JeJJC7=77777?+11+??            
                     ,zzz:`  .HHHMNQmggHNMH@Mo.. ^:+!?!!!!``            
                     ?`` !`  HMHHHHHH#HHHHHHH@c`...     ....            
                            .MHHH@HHHHHHHHHHMHN...J1zzllv?!!            
                             qHHHHHHHHHHMMMMMMMMBH#MWHWWMWMH            
                             .HHHHHHHHHHMNggNNgNgaQmghmdHaNd            
                                 .Jyww..                                
                                .rwrz+;.!                               
                                 wwwyz&+.                               
                                 OvOwz1!`                               
                                  zrzOI:`                               
                                  ,yXzz:                                
                                .JXyZuO+.                               
                              `.`wXWX0tv`                               
                          ..^...^+OXV4...      ..                       
                          z++.AJwzoy+ZJXz`    .++                       
                  ..+.   ,uIz+3?TCTGzdGz...  .yzz.       ...            
                .z++zOrrXXwIlz++?+.?+1+++.. `zXwwz .... ` ..            
                1C` ?zl1zwv`?=?1.:?+.:+!!:.`.?XyXX,.J.:..+..            
                .     ??+:`  ??+`!.?+?!...... .7UC1..JC+^`.J            
                             .+;;.`.`..`..JzOzzI.jw\dXs&&JJH            
                             .?+;:::..++wXWbkXXXwY6JfWWWWzUW            
                      .....  ,z??++.^:?1vUWHH=^!```!+++++zzz            
                     .OOO++  +zlllz+;:+++?+1u ...`!?!```````            
                         ``  .mggggmga&Qa+NdHL...``  ....J+=            
                             .NNNNNMMMMMMMMMMMMMHMHMM#HHMH#W            
                             MNNNNMNNNNNMNggNNgMgmHMdNNgNgNd            
                                                                        
                                   ..J...                               
                                  +OOvz+!.                              
                                  +ltz++..                              
                                  1tOOz+!.                              
                                   1lwO=;`                              
                                   .wtz1!                               
                                 ..wuuzI+.                              
                              `   1wzZwI+.                              
                          .+ `` `. ?ztttc`                              
              !``i+...   .ll.. ...J,`??!+.I+.   .                       
                  ??zI   .z=O+...+?IZ1J:?&C:.   +          .            
                    O=: .===wyz+.J`?!?`!+!:`.  ,t;  ....``              
                    Ozz1OlltZT??++..`+::.:^``. ?zw.`.?.` .?!            
                    .vOzzll?  i??;;:````^^`..` .+Oo.`.+v1!!.            
                     1zwOv!   .+;;;:...^`..`. ` `?Oo.`CJ1..j            
                      `!`      ??;;!....^ ... ` ..?X+..J?CjW            
                        .     ,=1+;:...^^..`    7777?Wkwwyz+            
                      ,zzc..  +?1++++:::^^...   .....vHWXVo!            
                      ??``!` .gsz?++++++J#HBBH9HB9V9UkWUMB#W            
                             .HHHHHNmgggJNg+aNgHggQNgNmdMgNd            
                                                                        
                                   .uwOo.                               
                                  jOrOz+..                              
                                  .rwyzjz+                              
                                  .OttO++.`                             
                                   .ttwzv!                              
                                   .uwtv?`                              
                                  `jzX0wv.                              
                            ..     ` ?Izz..                             
                         .JOrzi  `  ..  ?!. .                           
                         .tvzuw;.. `..I+!1..v                           
                         JuuVOdP?+...C.!??````                          
                       .wrOtlOW$;;:........``  ..                       
                      JZXtlv! 1+;;:::^.` ..``  ++;?+=l:..`              
                      Xuvrv`   ;;;+:`^.... `   `!!!??!``z+.!            
                      1Zv!     ?;;;+.^... ```  ?+1zz`.z?O?1z            
                              .+??;;::^^...``` +lttwwXJc..,X            
                              J???;;:^^^^..``` zwwwXXXWZu+XH            
                       .      ????+;+:^^....`  7777777177+?+            
                     .zzz+`  .Hmexz=+uc+d#HHMMBHYBBHWHWYHYBU            
                     `?!``! .M@MHHHHHHHHMNggNNgNggmkdhmgkgmd            
                                    .....                               
                                   JwVOI+!.                             
                                  .ttlz;+.`                             
                                   twXXvzz`                             
                                   `tOwOz+`                             
                                    wOwrI;                              
                                  .zzXwOz:                              
                                    ?wXOz!.                             
                            Jz, ``    ??++`                             
                          .zllO+..  .ci.....+.                          
                          zrOzOk++...Ijz++.1+.                          
                         jrrOOwSz?i+=i.^. ``    .  .... ....            
                        +OvzwwwkAzXOV1!.``.``   ;;;++?!!??1z            
                       jwwXXyWXY7+?+?`.``.`    .??!.... !  .            
                       uZZZXV^ ::;:::^^..  `    ..+..!, .`:.            
                       ?777`   .;;;;;.^..` ``` .+zll;.?!?``.            
                               +??;;;``^^.  `` .ztrvwunoJ..X            
                              .????;;`^^..  `` .wzXXXyXXZ:d9            
                       ...    .xzzz=+++:JJ.^ .,?!??!:+;+++++            
                      zzzz:  .d@HHNmmgHgd#MMMMMMBUBHWHUYHY9U            
                      `   ` .HHHHHHHHHHHMNggNNgMgAkHghmgHgNd            
                                                                        
                                                                        
                                  .zzwOI.                               
                                 .ttt??+..                              
                                  tOww1zz.                              
                                  1tlOz++.                              
                                   jtwzlz`                              
                                   JXOz1:                               
                                 .+wzXwv:                               
                               ` `.1OrIz+!                              
                           +       ``?1+?..               .+            
                          jrw.`.``.?i....?.v`            ?;.            
                         .wrzI.....r?O+v+.?!``  .     ...1;             
                        .wzOrXz=z+.`.^^..... `  +   .Jllv```            
                        JuuuvXOz??;!`^``...`   `tZl==lv!.+?`            
                       .uZZX!?=lz?+`^.`...`    ?1+1zv!.1!+?w            
                       JyyyWAwXVI?++.`^.` `````?+?!.+++:  dW            
                       `TWWWWHkOOzz;......  `  J+ywXXXZZvwWH            
                              wwwwwz+`:.`^. `. ?OVUYT7TT+?1+            
                     .z++:.  .wXZwwZ!`.^J#HBBHUWUBBHWHWYHY#B            
                     z??!+`  .mkXXZz++,.JN+Jnm+WQQQHdhmgHgmd            
                                                                        
                                                                        
                                                                        
                                  .J++..                                
                                 +OOz+:`.                               
                                 1lOz++..                               
                                 1tOOz?!`                               
                                  1OtC1z.                               
                                  .OOz1+                                
                                 .jzzrI+.                               
                              ` ?zwzOrI++`                              
                           ..``` 1trrOOv`              ,+i+             
                         .,.... ..?CtO1...      :.    ?1=zv`            
                         .O++..Iz1..J,J!OI:    .+.   .zOv!              
                         JzI++.r?wzzw++Oz+..  .wOzi  dA;```.            
                        .ZZkwz+.::.:^::;+...  ?XvwwAdZZ|,?!`            
                        JXfWr1Oz+:::+.`+:`+?.. ?OXXZXyX`+!ja            
                        wyU$ ,tz?+^..`+.^..`?.,+`wzXVy'...Wk            
                        .TkUVSz?++:.`+.``..`..zwO,7UWidZjXHW            
                          JrtOIz+;+:::^.`#HWWHWMHM#MHMWBMB#W            
                     ,z++jZXkXw+?1+:::^`JN+Jmm&XggQNdNmdHgNd                         